<?xml version="1.0" encoding="UTF-8" standalone="no"?>
<svg width="25px" height="24px" viewBox="0 0 25 24" version="1.1" xmlns="http://www.w3.org/2000/svg" xmlns:xlink="http://www.w3.org/1999/xlink">
    <!-- Generator: Sketch 48.2 (47327) - http://www.bohemiancoding.com/sketch -->
    <title>Bitcoin</title>
    <desc>Created with Sketch.</desc>
    <defs>
        <polygon id="path-1" points="0.00015625 0.904411765 24.0390625 0.904411765 24.0390625 23.5289706 0.00015625 23.5289706"></polygon>
    </defs>
    <g id="Desktop" stroke="none" stroke-width="1" fill="none" fill-rule="evenodd" transform="translate(-307.000000, -373.000000)">
        <g id="Group-8" transform="translate(268.000000, 303.000000)">
            <g id="Bitcoin" transform="translate(39.000000, 69.000000)">
                <path d="M12.310625,11.9220588 C12.8528125,11.9029412 13.4278125,11.7852941 13.841875,11.5691176 C14.2590625,11.3544118 14.4934375,11.0147059 14.4809375,10.5073529 C14.466875,9.99705882 14.1059375,9.56617647 13.4965625,9.39117647 C12.885625,9.21470588 12.47625,9.20147059 12.01375,9.19558824 C11.548125,9.18823529 11.0778125,9.22794118 11.0778125,9.22794118 L11.0778125,11.9220588 C11.0778125,11.9220588 11.77,11.9411765 12.310625,11.9220588 M14.3825,13.6647059 C14.1059375,13.5338235 13.48875,13.3573529 12.754375,13.3117647 C12.0184375,13.2661765 11.0778125,13.3117647 11.0778125,13.3117647 L11.0778125,16.3058824 C11.0778125,16.3058824 12.0621875,16.3264706 12.72,16.2794118 C13.379375,16.2352941 14.0575,16.0779412 14.398125,15.9014706 C14.7371875,15.725 15.145,15.4514706 15.145,14.7661765 C15.145,14.0808824 14.660625,13.7941176 14.3825,13.6647059" id="Fill-1" fill="#000000"></path>
                <g id="Group-5" transform="translate(0.000000, 0.566471)">
                    <mask id="mask-2" fill="white">
                        <use xlink:href="#path-1"></use>
                    </mask>
                    <g id="Clip-4"></g>
                    <path d="M16.9142188,16.5422059 C16.0189063,17.1289706 15.0626563,17.2333824 14.6407813,17.2863235 C14.4314063,17.3113235 14.0735938,17.3392647 13.6907813,17.3598529 L13.6907813,19.6289706 L12.2064063,19.6289706 L12.2064063,17.3966176 L11.0782813,17.3966176 L11.0782813,19.6289706 L9.59234375,19.6289706 L9.59234375,17.3966176 L6.67515625,17.3966176 L6.98140625,15.7201471 L7.86734375,15.7201471 C8.16578125,15.7201471 8.28921875,15.6936765 8.41578125,15.5833824 C8.54078125,15.4716176 8.56734375,15.3025 8.56734375,15.1657353 L8.56734375,9.38779412 C8.56734375,9.02602941 8.53609375,8.92897059 8.35953125,8.74220588 C8.18296875,8.55691176 7.76734375,8.53191176 7.53296875,8.53191176 L6.67515625,8.53191176 L6.67515625,7.08191176 L9.59234375,7.08191176 L9.59234375,4.84514706 L11.0767188,4.84514706 L11.0767188,7.08191176 L12.2064063,7.08191176 L12.2064063,4.84514706 L13.6907813,4.84514706 L13.6907813,7.10838235 C14.7970313,7.17308824 15.6189063,7.37161765 16.3376563,7.87161765 C17.2673438,8.51720588 17.2173438,9.63926471 17.1985938,9.90691176 C17.1767188,10.1745588 17.0517188,10.6907353 16.8032813,11.0230882 C16.5532813,11.3554412 15.9423438,11.6877941 15.9423438,11.6877941 C15.9423438,11.6877941 16.6642188,11.8319118 17.1704688,12.1907353 C17.6751563,12.5495588 18.0517188,13.1819118 18.0298438,14.1083824 C18.0079688,15.0348529 17.8079688,15.9554412 16.9142188,16.5422059 M12.0189063,0.903970588 C5.38140625,0.903970588 0.00015625,5.96867647 0.00015625,12.2172059 C0.00015625,18.4642647 5.38140625,23.5289706 12.0189063,23.5289706 C18.6579687,23.5289706 24.0392187,18.4642647 24.0392187,12.2172059 C24.0392187,5.96867647 18.6579687,0.903970588 12.0189063,0.903970588" id="Fill-3" fill="#000000" mask="url(#mask-2)"></path>
                </g>
            </g>
        </g>
    </g>
</svg>