<?xml version="1.0" encoding="UTF-8" standalone="no"?>
<svg width="25px" height="25px" viewBox="0 0 25 25" version="1.1" xmlns="http://www.w3.org/2000/svg" xmlns:xlink="http://www.w3.org/1999/xlink">
    <!-- Generator: Sketch 48.2 (47327) - http://www.bohemiancoding.com/sketch -->
    <title>if_LTC_1175271</title>
    <desc>Created with Sketch.</desc>
    <defs></defs>
    <g id="Desktop" stroke="none" stroke-width="1" fill="none" fill-rule="evenodd" transform="translate(-307.000000, -483.000000)">
        <g id="Group-8" transform="translate(268.000000, 303.000000)" fill="#000000" fill-rule="nonzero">
            <g id="if_LTC_1175271" transform="translate(39.000000, 180.000000)">
                <path d="M12.4998898,0 C5.59636202,0 0,5.59647221 0,12.5001102 C0,19.4038584 5.59636202,25 12.4998898,25 C19.403638,25 25,19.4038584 25,12.5001102 C25.0001102,5.59647221 19.4037482,0 12.4998898,0 Z M17.3521491,18.595626 L7.58526384,18.595626 L8.40616791,14.676663 L6.80997779,15.771165 L7.197731,13.6265669 L8.86719645,12.4773012 L10.5048174,4.66064156 L13.5538425,4.66064156 L12.4263941,10.0279218 L16.3960438,7.29590892 L15.9308281,9.51807972 L11.9618395,12.2389635 L11.1766365,15.9776582 L17.8946069,15.9776582 L17.3521491,18.595626 Z" id="LTC"></path>
            </g>
        </g>
    </g>
</svg>