<?xml version="1.0" encoding="UTF-8" standalone="no"?>
<svg width="27px" height="29px" viewBox="0 0 27 29" version="1.1" xmlns="http://www.w3.org/2000/svg" xmlns:xlink="http://www.w3.org/1999/xlink">
    <!-- Generator: Sketch 48.2 (47327) - http://www.bohemiancoding.com/sketch -->
    <title>History</title>
    <desc>Created with Sketch.</desc>
    <defs>
        <polygon id="path-1" points="0.000888888889 0.0255555556 26.6666667 0.0255555556 26.6666667 28.8888889 0.000888888889 28.8888889"></polygon>
        <polygon id="path-3" points="0 29.9743333 26.6666667 29.9743333 26.6666667 1.111 0 1.111"></polygon>
    </defs>
    <g id="Desktop-Copy-6" stroke="none" stroke-width="1" fill="none" fill-rule="evenodd" transform="translate(-28.000000, -256.000000)">
        <g id="History" transform="translate(28.000000, 255.000000)">
            <g id="Group-3" transform="translate(0.000000, 1.085444)">
                <mask id="mask-2" fill="white">
                    <use xlink:href="#path-1"></use>
                </mask>
                <g id="Clip-2"></g>
                <path d="M22.7608889,6.12777778 C20.4664444,3.83222222 17.4808889,2.47666667 14.2731111,2.25555556 L15.8942222,0.634444444 L15.2853333,0.0255555556 L12.5731111,2.73777778 L15.2853333,5.45111111 L15.8942222,4.84222222 L14.1631111,3.11111111 C20.6542222,3.53888889 25.8064444,8.95666667 25.8064444,15.5555556 C25.8064444,22.4333333 20.2108889,28.0288889 13.3342222,28.0288889 C6.45533333,28.0288889 0.859777778,22.4333333 0.859777778,15.5555556 C0.859777778,15.2788889 0.869777778,14.9988889 0.886444444,14.7244444 L0.0286666667,14.6677778 C0.00977777778,14.9611111 0.000888888889,15.26 0.000888888889,15.5555556 C0.000888888889,19.1166667 1.38755556,22.4655556 3.90533333,24.9833333 C6.42311111,27.5022222 9.772,28.8888889 13.3342222,28.8888889 C16.8953333,28.8888889 20.242,27.5022222 22.7608889,24.9833333 C25.2797778,22.4655556 26.6675556,19.1166667 26.6675556,15.5555556 C26.6675556,11.9933333 25.2797778,8.64555556 22.7608889,6.12777778" id="Fill-1" fill="#FFFFFF" mask="url(#mask-2)"></path>
            </g>
            <path d="M2.32788889,9.11155556 C2.16122222,9.35488889 2.00011111,9.60711111 1.85011111,9.86044444 L2.59011111,10.2993333 C2.73011111,10.0615556 2.88122222,9.826 3.03788889,9.59711111 L2.32788889,9.11155556 Z" id="Fill-4" fill="#FFFFFF"></path>
            <path d="M3.42711111,7.71622222 C3.22933333,7.93511111 3.036,8.164 2.85377778,8.39511111 L3.53044444,8.92733333 C3.70044444,8.71177778 3.88044444,8.49733333 4.066,8.29288889 L3.42711111,7.71622222 Z" id="Fill-6" fill="#FFFFFF"></path>
            <path d="M0.263,13.9916667 C0.204111111,14.2805556 0.155222222,14.5761111 0.116333333,14.8694444 L0.969666667,14.9816667 C1.00633333,14.7083333 1.05188889,14.4316667 1.10633333,14.1616667 L0.263,13.9916667 Z" id="Fill-8" fill="#FFFFFF"></path>
            <path d="M4.701,6.47922222 C4.47655556,6.67033333 4.25544444,6.87144444 4.04322222,7.077 L4.64322222,7.69366667 C4.841,7.50033333 5.04766667,7.31255556 5.25877778,7.13477778 L4.701,6.47922222 Z" id="Fill-10" fill="#FFFFFF"></path>
            <path d="M1.423,10.6404444 C1.29077778,10.9037778 1.16522222,11.176 1.04966667,11.4471111 L1.84188889,11.7826667 C1.94966667,11.5282222 2.06633333,11.2748889 2.19077778,11.0282222 L1.423,10.6404444 Z" id="Fill-12" fill="#FFFFFF"></path>
            <path d="M0.730666667,12.2767778 C0.634,12.5556667 0.546222222,12.8412222 0.468444444,13.1267778 L1.29844444,13.3523333 C1.37066667,13.0867778 1.45288889,12.819 1.54288889,12.559 L0.730666667,12.2767778 Z" id="Fill-14" fill="#FFFFFF"></path>
            <path d="M13.3934444,25.1831111 C8.66677778,25.1831111 4.82122222,21.3375556 4.82122222,16.6108889 C4.82122222,11.8842222 8.66677778,8.03866667 13.3934444,8.03866667 C18.1201111,8.03866667 21.9656667,11.8842222 21.9656667,16.6108889 C21.9656667,21.3375556 18.1201111,25.1831111 13.3934444,25.1831111 M13.3934444,7.17866667 C8.19233333,7.17866667 3.96122222,11.4097778 3.96122222,16.6108889 C3.96122222,21.812 8.19233333,26.0431111 13.3934444,26.0431111 C18.5945556,26.0431111 22.8256667,21.812 22.8256667,16.6108889 C22.8256667,11.4097778 18.5945556,7.17866667 13.3934444,7.17866667" id="Fill-16" fill="#FFFFFF"></path>
            <mask id="mask-4" fill="white">
                <use xlink:href="#path-3"></use>
            </mask>
            <g id="Clip-19"></g>
            <polygon id="Fill-18" fill="#FFFFFF" mask="url(#mask-4)" points="12.9033333 9.90211111 13.7633333 9.90211111 13.7633333 9.04211111 12.9033333 9.04211111"></polygon>
            <polygon id="Fill-20" fill="#FFFFFF" mask="url(#mask-4)" points="12.9033333 24.1243333 13.7633333 24.1243333 13.7633333 23.2643333 12.9033333 23.2643333"></polygon>
            <polygon id="Fill-21" fill="#FFFFFF" mask="url(#mask-4)" points="5.79111111 17.0132222 6.65111111 17.0132222 6.65111111 16.1532222 5.79111111 16.1532222"></polygon>
            <polygon id="Fill-22" fill="#FFFFFF" mask="url(#mask-4)" points="20.0144444 17.0132222 20.8733333 17.0132222 20.8733333 16.1532222 20.0144444 16.1532222"></polygon>
            <path d="M13.8774444,16.3761111 C13.8052222,16.3027778 13.763,16.2038889 13.763,16.1005556 L13.763,11.5083333 L12.903,11.5083333 L12.903,16.4572222 C12.903,16.5605556 12.9441111,16.6594444 13.0174444,16.7327778 L15.5807778,19.2961111 L16.1896667,18.6883333 L13.8774444,16.3761111 Z" id="Fill-23" fill="#FFFFFF" mask="url(#mask-4)"></path>
        </g>
    </g>
</svg>